<?xml version="1.0" encoding="utf-8"?>
<!-- Generator: Adobe Illustrator 15.1.0, SVG Export Plug-In  -->
<!DOCTYPE svg PUBLIC "-//W3C//DTD SVG 1.1//EN" "http://www.w3.org/Graphics/SVG/1.1/DTD/svg11.dtd" [
	<!ENTITY ns_flows "http://ns.adobe.com/Flows/1.0/">
]>
<svg version="1.1"
	 xmlns="http://www.w3.org/2000/svg" xmlns:xlink="http://www.w3.org/1999/xlink" xmlns:a="http://ns.adobe.com/AdobeSVGViewerExtensions/3.0/"
	 x="0px" y="0px" width="570px" height="600px" viewBox="-433.373 -75.349 570 600"
	 enable-background="new -433.373 -75.349 570 600" xml:space="preserve">
<defs>
</defs>
<path fill="#BE1E2D" d="M28.75,23.158H4.041C1.811,23.158,0,21.346,0,19.113V4.041C0,1.809,1.811,0,4.041,0H28.75
	c2.232,0,4.041,1.809,4.041,4.041v15.072C32.791,21.346,30.982,23.158,28.75,23.158z"/>
<path fill="#FFFFFF" d="M24.143,2.523H7.975L2.301,8.199v1.053v4.549v4.852c0,1.461,1.182,2.645,2.645,2.645h22.9
	c1.465,0,2.646-1.184,2.646-2.645v-0.906v-3.945V8.867L24.143,2.523z"/>
<path fill="#A6A8AB" d="M27.846,21.758h-22.9c-1.711,0-3.105-1.393-3.105-3.105V8.006l5.947-5.943h16.547l6.619,6.617v9.973
	C30.953,20.365,29.557,21.758,27.846,21.758z M2.762,8.391v10.262c0,1.205,0.98,2.184,2.184,2.184h22.9
	c1.203,0,2.182-0.979,2.182-2.184V9.061l-6.072-6.076H8.168L2.762,8.391z"/>
<rect x="15.232" y="6.676" fill="#A6A8AB" width="2.027" height="4.65"/>
<rect x="7.117" y="11.91" fill="#A6A8AB" width="2.031" height="4.648"/>
<rect x="23.174" y="11.91" fill="#A6A8AB" width="2.031" height="4.648"/>
</svg>
