<?xml version="1.0" encoding="utf-8"?>
<!-- Generator: Adobe Illustrator 15.1.0, SVG Export Plug-In  -->
<!DOCTYPE svg PUBLIC "-//W3C//DTD SVG 1.1//EN" "http://www.w3.org/Graphics/SVG/1.1/DTD/svg11.dtd" [
	<!ENTITY ns_flows "http://ns.adobe.com/Flows/1.0/">
]>
<svg version="1.1"
	 xmlns="http://www.w3.org/2000/svg" xmlns:xlink="http://www.w3.org/1999/xlink" xmlns:a="http://ns.adobe.com/AdobeSVGViewerExtensions/3.0/"
	 x="0px" y="0px" width="570px" height="600px" viewBox="-433.373 -31.671 570 600"
	 enable-background="new -433.373 -31.671 570 600" xml:space="preserve">
<defs>
</defs>
<path fill="#F6921E" d="M28.75,23.156H4.041C1.809,23.156,0,21.348,0,19.115V4.046C0,1.81,1.809,0,4.041,0H28.75
	c2.231,0,4.041,1.81,4.041,4.046v15.069C32.791,21.348,30.981,23.156,28.75,23.156z"/>
<path fill="#FFFFFF" d="M24.142,2.521H7.975L2.3,8.201v1.054v4.544v4.856c0,1.459,1.182,2.646,2.646,2.646h22.9
	c1.463,0,2.645-1.187,2.645-2.646v-0.904v-3.952V8.871L24.142,2.521z"/>
<path fill="#A6A8AB" d="M27.846,21.761h-22.9c-1.711,0-3.106-1.396-3.106-3.105V8.009l5.948-5.947h16.547l6.617,6.617v9.977
	C30.951,20.365,29.557,21.761,27.846,21.761z M2.761,8.389v10.267c0,1.203,0.981,2.181,2.185,2.181h22.9
	c1.203,0,2.18-0.978,2.18-2.181V9.063l-6.072-6.075H8.166L2.761,8.389z"/>
<rect x="15.232" y="6.679" fill="#A6A8AB" width="2.027" height="4.646"/>
<rect x="7.117" y="11.913" fill="#A6A8AB" width="2.031" height="4.647"/>
<rect x="23.174" y="11.913" fill="#A6A8AB" width="2.031" height="4.647"/>
<path fill="#37B34A" d="M28.75,23.156H4.041C1.811,23.156,0,21.348,0,19.115V4.043C0,1.809,1.811,0,4.041,0H28.75
	c2.23,0,4.041,1.809,4.041,4.043v15.072C32.791,21.348,30.98,23.156,28.75,23.156z"/>
<path fill="#FFFFFF" d="M24.141,2.521H7.975L2.301,8.197v1.059v4.543v4.855c0,1.459,1.182,2.643,2.645,2.643h22.9
	c1.463,0,2.645-1.184,2.645-2.643v-0.906v-3.949V8.871L24.141,2.521z"/>
<path fill="#A6A8AB" d="M27.846,21.762h-22.9c-1.711,0-3.105-1.396-3.105-3.107V8.008l5.947-5.947h16.547l6.617,6.619v9.975
	C30.951,20.365,29.557,21.762,27.846,21.762z M2.762,8.389v10.266c0,1.203,0.98,2.18,2.184,2.18h22.9c1.203,0,2.18-0.977,2.18-2.18
	V9.061l-6.072-6.076H8.168L2.762,8.389z"/>
<rect x="15.232" y="6.678" fill="#A6A8AB" width="2.027" height="4.646"/>
<rect x="7.117" y="11.912" fill="#A6A8AB" width="2.031" height="4.645"/>
<rect x="23.174" y="11.912" fill="#A6A8AB" width="2.029" height="4.645"/>
</svg>
