<?xml version="1.0" encoding="utf-8"?>
<!-- Generator: Adobe Illustrator 15.1.0, SVG Export Plug-In  -->
<!DOCTYPE svg PUBLIC "-//W3C//DTD SVG 1.1//EN" "http://www.w3.org/Graphics/SVG/1.1/DTD/svg11.dtd" [
	<!ENTITY ns_flows "http://ns.adobe.com/Flows/1.0/">
]>
<svg version="1.1"
	 xmlns="http://www.w3.org/2000/svg" xmlns:xlink="http://www.w3.org/1999/xlink" xmlns:a="http://ns.adobe.com/AdobeSVGViewerExtensions/3.0/"
	 x="0px" y="0px" width="570px" height="600px" viewBox="-433.373 -206.38 570 600"
	 enable-background="new -433.373 -206.38 570 600" xml:space="preserve">
<defs>
</defs>
<path fill="#37B34A" d="M28.75,23.156H4.041C1.811,23.156,0,21.348,0,19.115V4.043C0,1.811,1.811,0,4.041,0H28.75
	c2.232,0,4.041,1.811,4.041,4.043v15.072C32.791,21.348,30.982,23.156,28.75,23.156z"/>
<path fill="#FFFFFF" d="M24.143,2.523H7.975L2.301,8.197v1.061v4.543v4.852c0,1.461,1.182,2.646,2.645,2.646h22.9
	c1.465,0,2.646-1.186,2.646-2.646v-0.904v-3.947v-4.93L24.143,2.523z"/>
<path fill="#A6A8AB" d="M27.846,21.762h-22.9c-1.711,0-3.105-1.395-3.105-3.109V8.008l5.947-5.947h16.547l6.619,6.617v9.975
	C30.953,20.367,29.557,21.762,27.846,21.762z M2.762,8.391v10.262c0,1.205,0.98,2.184,2.184,2.184h22.9
	c1.203,0,2.182-0.979,2.182-2.184V9.061l-6.072-6.076H8.168L2.762,8.391z"/>
<rect x="15.232" y="6.678" fill="#A6A8AB" width="2.027" height="4.648"/>
<rect x="7.117" y="11.91" fill="#A6A8AB" width="2.031" height="4.646"/>
<rect x="23.174" y="11.91" fill="#A6A8AB" width="2.031" height="4.646"/>
</svg>
