<?xml version="1.0" encoding="utf-8"?>
<!-- Generator: Adobe Illustrator 15.1.0, SVG Export Plug-In  -->
<!DOCTYPE svg PUBLIC "-//W3C//DTD SVG 1.1//EN" "http://www.w3.org/Graphics/SVG/1.1/DTD/svg11.dtd" [
	<!ENTITY ns_flows "http://ns.adobe.com/Flows/1.0/">
]>
<svg version="1.1"
	 xmlns="http://www.w3.org/2000/svg" xmlns:xlink="http://www.w3.org/1999/xlink" xmlns:a="http://ns.adobe.com/AdobeSVGViewerExtensions/3.0/"
	 x="0px" y="0px" width="570px" height="600px" viewBox="-361.584 -440.14 570 600"
	 enable-background="new -361.584 -440.14 570 600" xml:space="preserve">
<defs>
</defs>
<path fill="#37B34A" d="M8.969,17.113c0-2.211,0.888-4.217,2.321-5.686l-1.446-0.852c-1.562,1.73-2.525,4.021-2.525,6.537
	c0,2.262,0.78,4.344,2.073,6.004l1.284-1.033C9.609,20.711,8.969,18.986,8.969,17.113z"/>
<path fill="#37B34A" d="M25.256,17.113c0,2.27-0.938,4.326-2.449,5.809l1.344,0.98c1.698-1.76,2.752-4.152,2.752-6.789
	c0-2.553-0.994-4.875-2.594-6.619l-1.575,0.746C24.282,12.725,25.256,14.805,25.256,17.113z"/>
<path fill="#37B34A" d="M17.105,8.969c1.754,0,3.371,0.559,4.702,1.504l1.102-1.232c-1.626-1.197-3.627-1.916-5.804-1.916
	c-2.325,0-4.471,0.82-6.156,2.189l0.981,1.314C13.343,9.668,15.147,8.969,17.105,8.969z"/>
<path fill="#37B34A" d="M17.105,25.254c-2.257,0-4.31-0.928-5.785-2.426l-0.811,1.494c1.74,1.596,4.058,2.576,6.596,2.576
	c2.121,0,4.075-0.678,5.68-1.822l-0.854-1.418C20.579,24.654,18.915,25.254,17.105,25.254z"/>
<path fill="#37B34A" d="M28.822,17.113c0,3.059-1.19,5.844-3.123,7.932l1.344,0.986c2.13-2.367,3.427-5.494,3.427-8.918
	c0-3.09-1.058-5.936-2.825-8.203l-1.527,0.727C27.803,11.668,28.822,14.271,28.822,17.113z"/>
<path fill="#37B34A" d="M17.105,28.824c-2.867,0-5.499-1.047-7.539-2.766l-0.802,1.475c2.286,1.834,5.188,2.938,8.341,2.938
	c2.791,0,5.377-0.857,7.519-2.32l-0.85-1.418C21.881,28.049,19.585,28.824,17.105,28.824z"/>
<path fill="#37B34A" d="M5.397,17.113c0-2.873,1.041-5.498,2.761-7.537L6.721,8.729c-1.852,2.293-2.97,5.209-2.97,8.385
	c0,3.105,1.07,5.967,2.858,8.24l1.288-1.035C6.336,22.328,5.397,19.828,5.397,17.113z"/>
<path fill="#37B34A" d="M17.105,5.4c2.667,0,5.12,0.904,7.088,2.404l1.109-1.236c-2.266-1.762-5.107-2.816-8.197-2.816
	c-3.127,0-6.007,1.086-8.286,2.895l0.986,1.328C11.807,6.367,14.345,5.4,17.105,5.4z"/>
<path fill="#37B34A" d="M17.105,1.648c3.627,0,6.964,1.254,9.605,3.354l1.097-1.23C24.876,1.418,21.155,0,17.105,0
	C13.143,0,9.485,1.361,6.58,3.641l0.98,1.322C10.193,2.893,13.509,1.648,17.105,1.648z"/>
<path fill="#37B34A" d="M32.573,17.113c0,3.889-1.446,7.449-3.832,10.168l1.332,0.98c2.581-2.998,4.146-6.895,4.146-11.148
	c0-3.66-1.156-7.055-3.127-9.842l-1.507,0.717C31.464,10.549,32.573,13.703,32.573,17.113z"/>
<path fill="#37B34A" d="M17.105,32.572c-3.516,0-6.759-1.174-9.356-3.166l-0.794,1.463c2.842,2.104,6.357,3.354,10.15,3.354
	c3.49,0,6.737-1.053,9.443-2.85l-0.846-1.412C23.246,31.609,20.289,32.572,17.105,32.572z"/>
<path fill="#37B34A" d="M1.647,17.113c0-3.563,1.212-6.846,3.247-9.463l-1.43-0.848C1.289,9.672,0,13.24,0,17.113
	c0,3.994,1.379,7.672,3.683,10.586l1.284-1.031C2.89,24.039,1.647,20.717,1.647,17.113z"/>
<path fill="#37B34A" d="M23.425,17.113c0,3.486-2.829,6.313-6.319,6.313c-3.485,0-6.31-2.826-6.31-6.313s2.824-6.313,6.31-6.313
	C20.596,10.801,23.425,13.627,23.425,17.113z"/>
</svg>
