<?xml version="1.0" encoding="utf-8"?>
<!-- Generator: Adobe Illustrator 15.1.0, SVG Export Plug-In  -->
<!DOCTYPE svg PUBLIC "-//W3C//DTD SVG 1.1//EN" "http://www.w3.org/Graphics/SVG/1.1/DTD/svg11.dtd" [
	<!ENTITY ns_flows "http://ns.adobe.com/Flows/1.0/">
]>
<svg version="1.1"
	 xmlns="http://www.w3.org/2000/svg" xmlns:xlink="http://www.w3.org/1999/xlink" xmlns:a="http://ns.adobe.com/AdobeSVGViewerExtensions/3.0/"
	 x="0px" y="0px" width="570px" height="600px" viewBox="-161.855 -515.353 570 600"
	 enable-background="new -161.855 -515.353 570 600" xml:space="preserve">
<defs>
</defs>
<path fill="#BE1E2D" d="M8.97,17.107c0-2.207,0.887-4.213,2.32-5.676l-1.442-0.857c-1.565,1.734-2.525,4.021-2.525,6.533
	c0,2.264,0.78,4.348,2.074,6.01l1.283-1.029C9.613,20.705,8.97,18.982,8.97,17.107z"/>
<path fill="#BE1E2D" d="M25.256,17.107c0,2.277-0.939,4.334-2.445,5.813l1.34,0.982c1.698-1.762,2.752-4.156,2.752-6.795
	c0-2.549-0.989-4.867-2.594-6.611l-1.566,0.738C24.287,12.721,25.256,14.805,25.256,17.107z"/>
<path fill="#BE1E2D" d="M17.114,8.969c1.75,0,3.367,0.561,4.693,1.5l1.102-1.229c-1.622-1.201-3.627-1.922-5.795-1.922
	c-2.334,0-4.476,0.826-6.161,2.193l0.981,1.322C13.343,9.666,15.147,8.969,17.114,8.969z"/>
<path fill="#BE1E2D" d="M17.114,25.254c-2.266,0-4.317-0.93-5.794-2.428l-0.807,1.492c1.741,1.602,4.054,2.584,6.601,2.584
	c2.112,0,4.066-0.684,5.671-1.826l-0.85-1.418C20.583,24.656,18.92,25.254,17.114,25.254z"/>
<path fill="#BE1E2D" d="M28.822,17.107c0,3.066-1.19,5.85-3.118,7.938l1.339,0.988c2.13-2.369,3.427-5.496,3.427-8.926
	c0-3.088-1.059-5.932-2.82-8.197l-1.532,0.727C27.808,11.666,28.822,14.27,28.822,17.107z"/>
<path fill="#BE1E2D" d="M17.114,28.82c-2.871,0-5.504-1.043-7.543-2.766l-0.803,1.479c2.287,1.836,5.188,2.938,8.346,2.938
	c2.782,0,5.372-0.857,7.51-2.32l-0.849-1.42C21.885,28.045,19.589,28.82,17.114,28.82z"/>
<path fill="#BE1E2D" d="M5.402,17.107c0-2.865,1.037-5.49,2.756-7.529l-1.434-0.85c-1.855,2.295-2.97,5.213-2.97,8.379
	c0,3.111,1.067,5.975,2.854,8.248l1.289-1.041C6.341,22.328,5.402,19.83,5.402,17.107z"/>
<path fill="#BE1E2D" d="M17.114,5.398c2.658,0,5.112,0.906,7.079,2.41l1.109-1.24c-2.266-1.766-5.104-2.816-8.188-2.816
	c-3.132,0-6.012,1.086-8.295,2.895l0.986,1.328C11.811,6.365,14.35,5.398,17.114,5.398z"/>
<path fill="#BE1E2D" d="M17.114,1.646c3.622,0,6.959,1.256,9.597,3.355l1.101-1.23C24.88,1.416,21.16,0,17.114,0
	C13.142,0,9.49,1.363,6.584,3.637l0.981,1.322C10.194,2.887,13.509,1.646,17.114,1.646z"/>
<path fill="#BE1E2D" d="M32.577,17.107c0,3.896-1.45,7.455-3.831,10.178l1.327,0.977c2.585-2.998,4.151-6.896,4.151-11.154
	c0-3.658-1.161-7.051-3.128-9.834l-1.51,0.713C31.464,10.547,32.577,13.705,32.577,17.107z"/>
<path fill="#BE1E2D" d="M17.114,32.572c-3.516,0-6.763-1.18-9.365-3.168L6.96,30.873c2.842,2.102,6.353,3.346,10.154,3.346
	c3.486,0,6.729-1.051,9.442-2.848l-0.849-1.412C23.246,31.609,20.293,32.572,17.114,32.572z"/>
<path fill="#BE1E2D" d="M1.647,17.107c0-3.561,1.216-6.844,3.247-9.463l-1.43-0.84C1.293,9.672,0,13.244,0,17.107
	c0,3.998,1.383,7.676,3.687,10.59l1.284-1.027C2.894,24.037,1.647,20.717,1.647,17.107z"/>
<path fill="#BE1E2D" d="M23.425,17.107c0,3.492-2.824,6.318-6.311,6.318c-3.485,0-6.314-2.826-6.314-6.318
	c0-3.486,2.829-6.311,6.314-6.311C20.601,10.797,23.425,13.621,23.425,17.107z"/>
</svg>
