<?xml version="1.0" encoding="utf-8"?>
<!-- Generator: Adobe Illustrator 15.1.0, SVG Export Plug-In  -->
<!DOCTYPE svg PUBLIC "-//W3C//DTD SVG 1.1//EN" "http://www.w3.org/Graphics/SVG/1.1/DTD/svg11.dtd" [
	<!ENTITY ns_flows "http://ns.adobe.com/Flows/1.0/">
]>
<svg version="1.1"
	 xmlns="http://www.w3.org/2000/svg" xmlns:xlink="http://www.w3.org/1999/xlink" xmlns:a="http://ns.adobe.com/AdobeSVGViewerExtensions/3.0/"
	 x="0px" y="0px" width="570px" height="600px" viewBox="-419.746 -440.14 570 600"
	 enable-background="new -419.746 -440.14 570 600" xml:space="preserve">
<defs>
</defs>
<path fill="#37B34A" d="M8.969,17.113c0-2.211,0.893-4.217,2.326-5.686l-1.451-0.852c-1.562,1.73-2.521,4.021-2.521,6.537
	c0,2.262,0.776,4.344,2.073,6.004l1.284-1.033C9.613,20.711,8.969,18.986,8.969,17.113z"/>
<path fill="#37B34A" d="M25.256,17.113c0,2.27-0.939,4.326-2.445,5.809l1.34,0.98c1.694-1.76,2.752-4.152,2.752-6.789
	c0-2.553-0.99-4.875-2.599-6.619l-1.566,0.746C24.286,12.725,25.256,14.805,25.256,17.113z"/>
<path fill="#37B34A" d="M17.109,8.969c1.75,0,3.371,0.559,4.698,1.504l1.105-1.232c-1.63-1.197-3.631-1.916-5.804-1.916
	c-2.329,0-4.475,0.82-6.156,2.189l0.981,1.314C13.347,9.668,15.151,8.969,17.109,8.969z"/>
<path fill="#37B34A" d="M17.109,25.254c-2.261,0-4.309-0.928-5.785-2.426l-0.814,1.494c1.745,1.596,4.057,2.576,6.6,2.576
	c2.117,0,4.075-0.678,5.676-1.822l-0.85-1.418C20.583,24.654,18.919,25.254,17.109,25.254z"/>
<path fill="#37B34A" d="M28.822,17.113c0,3.059-1.19,5.844-3.123,7.932l1.344,0.986c2.129-2.367,3.431-5.494,3.431-8.918
	c0-3.09-1.063-5.936-2.829-8.203l-1.527,0.727C27.807,11.668,28.822,14.271,28.822,17.113z"/>
<path fill="#37B34A" d="M17.109,28.824c-2.871,0-5.503-1.047-7.543-2.766l-0.798,1.475c2.287,1.834,5.188,2.938,8.341,2.938
	c2.787,0,5.373-0.857,7.515-2.32l-0.85-1.418C21.88,28.049,19.585,28.824,17.109,28.824z"/>
<path fill="#37B34A" d="M5.397,17.113c0-2.873,1.046-5.498,2.761-7.537L6.725,8.729c-1.86,2.293-2.97,5.209-2.97,8.385
	c0,3.105,1.07,5.967,2.854,8.24l1.288-1.035C6.336,22.328,5.397,19.828,5.397,17.113z"/>
<path fill="#37B34A" d="M17.109,5.4c2.667,0,5.112,0.904,7.083,2.404l1.114-1.236c-2.266-1.762-5.107-2.816-8.197-2.816
	c-3.131,0-6.011,1.086-8.29,2.895l0.986,1.328C11.811,6.367,14.35,5.4,17.109,5.4z"/>
<path fill="#37B34A" d="M17.109,1.648c3.628,0,6.964,1.254,9.601,3.354l1.102-1.23C24.876,1.418,21.155,0,17.109,0
	C13.142,0,9.485,1.361,6.584,3.641l0.981,1.322C10.198,2.893,13.509,1.648,17.109,1.648z"/>
<path fill="#37B34A" d="M32.572,17.113c0,3.889-1.446,7.449-3.826,10.168l1.331,0.98c2.581-2.998,4.146-6.895,4.146-11.148
	c0-3.66-1.164-7.055-3.127-9.842l-1.511,0.717C31.464,10.549,32.572,13.703,32.572,17.113z"/>
<path fill="#37B34A" d="M17.109,32.572c-3.511,0-6.758-1.174-9.36-3.166l-0.794,1.463c2.846,2.104,6.357,3.354,10.154,3.354
	c3.49,0,6.738-1.053,9.443-2.85l-0.846-1.412C23.245,31.609,20.288,32.572,17.109,32.572z"/>
<path fill="#37B34A" d="M1.646,17.113c0-3.563,1.217-6.846,3.252-9.463L3.465,6.803C1.293,9.672,0,13.24,0,17.113
	c0,3.994,1.383,7.672,3.683,10.586l1.288-1.031C2.893,24.039,1.646,20.717,1.646,17.113z"/>
<circle fill="#37B34A" cx="17.112" cy="17.113" r="6.313"/>
</svg>
