<?xml version="1.0" encoding="utf-8"?>
<!-- Generator: Adobe Illustrator 15.1.0, SVG Export Plug-In  -->
<!DOCTYPE svg PUBLIC "-//W3C//DTD SVG 1.1//EN" "http://www.w3.org/Graphics/SVG/1.1/DTD/svg11.dtd" [
	<!ENTITY ns_flows "http://ns.adobe.com/Flows/1.0/">
]>
<svg version="1.1"
	 xmlns="http://www.w3.org/2000/svg" xmlns:xlink="http://www.w3.org/1999/xlink" xmlns:a="http://ns.adobe.com/AdobeSVGViewerExtensions/3.0/"
	 x="0px" y="0px" width="570px" height="600px" viewBox="-102.192 -477.718 570 600"
	 enable-background="new -102.192 -477.718 570 600" xml:space="preserve">
<defs>
</defs>
<path fill="#BE1E2D" d="M8.97,17.111c0-2.211,0.888-4.217,2.321-5.684l-1.446-0.854c-1.563,1.736-2.526,4.025-2.526,6.537
	c0,2.264,0.78,4.346,2.078,6.008l1.284-1.033C9.609,20.707,8.97,18.986,8.97,17.111z"/>
<path fill="#BE1E2D" d="M25.256,17.111c0,2.273-0.938,4.33-2.445,5.809l1.336,0.984c1.702-1.764,2.756-4.152,2.756-6.793
	c0-2.555-0.989-4.873-2.594-6.619l-1.57,0.748C24.283,12.723,25.256,14.805,25.256,17.111z"/>
<path fill="#BE1E2D" d="M17.11,8.971c1.75,0,3.371,0.559,4.698,1.498l1.101-1.229c-1.626-1.197-3.627-1.918-5.799-1.918
	c-2.329,0-4.476,0.826-6.157,2.193l0.978,1.316C13.343,9.67,15.144,8.971,17.11,8.971z"/>
<path fill="#BE1E2D" d="M17.11,25.256c-2.262,0-4.313-0.93-5.79-2.424l-0.811,1.492c1.745,1.596,4.058,2.58,6.601,2.58
	c2.116,0,4.07-0.686,5.675-1.826l-0.849-1.422C20.584,24.658,18.92,25.256,17.11,25.256z"/>
<path fill="#BE1E2D" d="M28.823,17.111c0,3.061-1.19,5.85-3.119,7.938l1.34,0.986c2.129-2.367,3.426-5.492,3.426-8.924
	c0-3.092-1.058-5.932-2.824-8.199l-1.528,0.723C27.804,11.666,28.823,14.273,28.823,17.111z"/>
<path fill="#BE1E2D" d="M17.11,28.822c-2.872,0-5.504-1.039-7.543-2.766l-0.799,1.479c2.287,1.834,5.185,2.936,8.342,2.936
	c2.786,0,5.372-0.855,7.514-2.318l-0.849-1.422C21.881,28.051,19.59,28.822,17.11,28.822z"/>
<path fill="#BE1E2D" d="M5.398,17.111c0-2.867,1.041-5.494,2.761-7.533l-1.438-0.85c-1.852,2.293-2.97,5.209-2.97,8.383
	c0,3.109,1.071,5.973,2.859,8.246l1.288-1.039C6.341,22.33,5.398,19.832,5.398,17.111z"/>
<path fill="#BE1E2D" d="M17.11,5.398c2.662,0,5.116,0.904,7.083,2.408l1.109-1.238c-2.266-1.758-5.107-2.814-8.192-2.814
	c-3.132,0-6.008,1.086-8.29,2.895l0.985,1.328C11.812,6.367,14.346,5.398,17.11,5.398z"/>
<path fill="#BE1E2D" d="M17.11,1.652c3.627,0,6.959,1.25,9.596,3.35l1.102-1.229C24.88,1.418,21.16,0,17.11,0
	C13.143,0,9.49,1.365,6.58,3.643l0.985,1.318C10.194,2.891,13.509,1.652,17.11,1.652z"/>
<path fill="#BE1E2D" d="M32.574,17.111c0,3.896-1.447,7.453-3.832,10.172l1.331,0.979c2.581-3,4.147-6.893,4.147-11.15
	c0-3.656-1.156-7.053-3.124-9.836l-1.51,0.715C31.46,10.551,32.574,13.699,32.574,17.111z"/>
<path fill="#BE1E2D" d="M17.11,32.574c-3.516,0-6.759-1.18-9.361-3.166l-0.794,1.463c2.842,2.104,6.357,3.35,10.155,3.35
	c3.49,0,6.737-1.049,9.442-2.85l-0.845-1.414C23.246,31.613,20.294,32.574,17.11,32.574z"/>
<path fill="#BE1E2D" d="M1.647,17.111c0-3.561,1.216-6.842,3.247-9.465l-1.43-0.84C1.289,9.674,0,13.246,0,17.111
	c0,3.998,1.383,7.674,3.687,10.592l1.285-1.035C2.894,24.039,1.647,20.719,1.647,17.111z"/>
<path fill="#BE1E2D" d="M23.426,17.115c0,3.488-2.825,6.309-6.315,6.309c-3.486,0-6.311-2.82-6.311-6.309
	c0-3.49,2.824-6.316,6.311-6.316C20.601,10.799,23.426,13.625,23.426,17.115z"/>
</svg>
