<?xml version="1.0" encoding="utf-8"?>
<!-- Generator: Adobe Illustrator 15.1.0, SVG Export Plug-In  -->
<!DOCTYPE svg PUBLIC "-//W3C//DTD SVG 1.1//EN" "http://www.w3.org/Graphics/SVG/1.1/DTD/svg11.dtd" [
	<!ENTITY ns_flows "http://ns.adobe.com/Flows/1.0/">
]>
<svg version="1.1"
	 xmlns="http://www.w3.org/2000/svg" xmlns:xlink="http://www.w3.org/1999/xlink" xmlns:a="http://ns.adobe.com/AdobeSVGViewerExtensions/3.0/"
	 x="0px" y="0px" width="570px" height="600px" viewBox="-102.192 -515.353 570 600"
	 enable-background="new -102.192 -515.353 570 600" xml:space="preserve">
<defs>
</defs>
<path fill="#BE1E2D" d="M8.97,17.107c0-2.207,0.888-4.213,2.321-5.676l-1.446-0.857c-1.563,1.734-2.526,4.021-2.526,6.533
	c0,2.264,0.78,4.348,2.078,6.01l1.284-1.029C9.609,20.705,8.97,18.982,8.97,17.107z"/>
<path fill="#BE1E2D" d="M25.256,17.107c0,2.277-0.938,4.334-2.445,5.813l1.336,0.982c1.702-1.762,2.756-4.156,2.756-6.795
	c0-2.549-0.989-4.867-2.594-6.611l-1.57,0.738C24.283,12.721,25.256,14.805,25.256,17.107z"/>
<path fill="#BE1E2D" d="M17.11,8.969c1.75,0,3.371,0.561,4.698,1.5l1.101-1.229c-1.626-1.201-3.627-1.922-5.799-1.922
	c-2.329,0-4.476,0.826-6.157,2.193l0.978,1.322C13.343,9.666,15.144,8.969,17.11,8.969z"/>
<path fill="#BE1E2D" d="M17.11,25.254c-2.262,0-4.313-0.93-5.79-2.428l-0.811,1.492c1.745,1.602,4.058,2.584,6.601,2.584
	c2.116,0,4.07-0.684,5.675-1.826l-0.849-1.418C20.584,24.656,18.92,25.254,17.11,25.254z"/>
<path fill="#BE1E2D" d="M28.823,17.107c0,3.066-1.19,5.85-3.119,7.938l1.34,0.988c2.129-2.369,3.426-5.496,3.426-8.926
	c0-3.088-1.058-5.932-2.824-8.197l-1.528,0.727C27.804,11.666,28.823,14.27,28.823,17.107z"/>
<path fill="#BE1E2D" d="M17.11,28.82c-2.872,0-5.504-1.043-7.543-2.766l-0.799,1.479c2.287,1.836,5.185,2.938,8.342,2.938
	c2.786,0,5.372-0.857,7.514-2.32l-0.849-1.42C21.881,28.045,19.59,28.82,17.11,28.82z"/>
<path fill="#BE1E2D" d="M5.398,17.107c0-2.865,1.041-5.49,2.761-7.529l-1.438-0.85c-1.852,2.295-2.97,5.213-2.97,8.379
	c0,3.111,1.071,5.975,2.859,8.248l1.288-1.041C6.341,22.328,5.398,19.83,5.398,17.107z"/>
<path fill="#BE1E2D" d="M17.11,5.398c2.662,0,5.116,0.906,7.083,2.41l1.109-1.24c-2.266-1.766-5.107-2.816-8.192-2.816
	c-3.132,0-6.008,1.086-8.29,2.895l0.985,1.328C11.812,6.365,14.346,5.398,17.11,5.398z"/>
<path fill="#BE1E2D" d="M17.11,1.646c3.627,0,6.959,1.256,9.596,3.355l1.102-1.23C24.88,1.416,21.16,0,17.11,0
	C13.143,0,9.49,1.363,6.58,3.637l0.985,1.322C10.194,2.887,13.509,1.646,17.11,1.646z"/>
<path fill="#BE1E2D" d="M32.574,17.107c0,3.896-1.447,7.455-3.832,10.178l1.331,0.977c2.581-2.998,4.147-6.896,4.147-11.154
	c0-3.658-1.156-7.051-3.124-9.834l-1.51,0.713C31.46,10.547,32.574,13.705,32.574,17.107z"/>
<path fill="#BE1E2D" d="M17.11,32.572c-3.516,0-6.759-1.18-9.361-3.168l-0.794,1.469c2.842,2.102,6.357,3.346,10.155,3.346
	c3.49,0,6.737-1.051,9.442-2.848l-0.845-1.412C23.246,31.609,20.294,32.572,17.11,32.572z"/>
<path fill="#BE1E2D" d="M1.647,17.107c0-3.561,1.216-6.844,3.247-9.463l-1.43-0.84C1.289,9.672,0,13.244,0,17.107
	c0,3.998,1.383,7.676,3.687,10.59l1.285-1.027C2.894,24.037,1.647,20.717,1.647,17.107z"/>
<path fill="#BE1E2D" d="M23.426,17.107c0,3.492-2.825,6.318-6.315,6.318c-3.486,0-6.311-2.826-6.311-6.318
	c0-3.486,2.824-6.311,6.311-6.311C20.601,10.797,23.426,13.621,23.426,17.107z"/>
</svg>
