<?xml version="1.0" encoding="utf-8"?>
<!-- Generator: Adobe Illustrator 15.1.0, SVG Export Plug-In  -->
<!DOCTYPE svg PUBLIC "-//W3C//DTD SVG 1.1//EN" "http://www.w3.org/Graphics/SVG/1.1/DTD/svg11.dtd" [
	<!ENTITY ns_flows "http://ns.adobe.com/Flows/1.0/">
]>
<svg version="1.1"
	 xmlns="http://www.w3.org/2000/svg" xmlns:xlink="http://www.w3.org/1999/xlink" xmlns:a="http://ns.adobe.com/AdobeSVGViewerExtensions/3.0/"
	 x="0px" y="0px" width="570px" height="600px" viewBox="-102.192 -440.14 570 600"
	 enable-background="new -102.192 -440.14 570 600" xml:space="preserve">
<defs>
</defs>
<path fill="#BE1E2D" d="M8.97,17.113c0-2.211,0.888-4.217,2.321-5.686l-1.446-0.852c-1.563,1.73-2.526,4.021-2.526,6.537
	c0,2.262,0.78,4.344,2.078,6.004l1.284-1.033C9.609,20.711,8.97,18.986,8.97,17.113z"/>
<path fill="#BE1E2D" d="M25.256,17.113c0,2.27-0.938,4.326-2.445,5.809l1.336,0.98c1.702-1.76,2.756-4.152,2.756-6.789
	c0-2.553-0.989-4.875-2.594-6.619l-1.57,0.746C24.283,12.725,25.256,14.805,25.256,17.113z"/>
<path fill="#BE1E2D" d="M17.11,8.969c1.75,0,3.371,0.559,4.698,1.504l1.101-1.232c-1.626-1.197-3.627-1.916-5.799-1.916
	c-2.329,0-4.476,0.82-6.157,2.189l0.978,1.314C13.343,9.668,15.144,8.969,17.11,8.969z"/>
<path fill="#BE1E2D" d="M17.11,25.254c-2.262,0-4.313-0.928-5.79-2.426l-0.811,1.494c1.745,1.596,4.058,2.576,6.601,2.576
	c2.116,0,4.07-0.678,5.675-1.822l-0.849-1.418C20.584,24.654,18.92,25.254,17.11,25.254z"/>
<path fill="#BE1E2D" d="M28.823,17.113c0,3.059-1.19,5.844-3.119,7.932l1.34,0.986c2.129-2.367,3.426-5.494,3.426-8.918
	c0-3.09-1.058-5.936-2.824-8.203l-1.528,0.727C27.804,11.668,28.823,14.271,28.823,17.113z"/>
<path fill="#BE1E2D" d="M17.11,28.824c-2.872,0-5.504-1.047-7.543-2.766l-0.799,1.475c2.287,1.834,5.185,2.938,8.342,2.938
	c2.786,0,5.372-0.857,7.514-2.32l-0.849-1.418C21.881,28.049,19.59,28.824,17.11,28.824z"/>
<path fill="#BE1E2D" d="M5.398,17.113c0-2.873,1.041-5.498,2.761-7.537L6.721,8.729c-1.852,2.293-2.97,5.209-2.97,8.385
	c0,3.105,1.071,5.967,2.859,8.24l1.288-1.035C6.341,22.328,5.398,19.828,5.398,17.113z"/>
<path fill="#BE1E2D" d="M17.11,5.4c2.662,0,5.116,0.904,7.083,2.404l1.109-1.236c-2.266-1.762-5.107-2.816-8.192-2.816
	c-3.132,0-6.008,1.086-8.29,2.895l0.985,1.328C11.812,6.367,14.346,5.4,17.11,5.4z"/>
<path fill="#BE1E2D" d="M17.11,1.648c3.627,0,6.959,1.254,9.596,3.354l1.102-1.23C24.88,1.418,21.16,0,17.11,0
	C13.143,0,9.49,1.361,6.58,3.641l0.985,1.322C10.194,2.893,13.509,1.648,17.11,1.648z"/>
<path fill="#BE1E2D" d="M32.574,17.113c0,3.889-1.447,7.449-3.832,10.168l1.331,0.98c2.581-2.998,4.147-6.895,4.147-11.148
	c0-3.66-1.156-7.055-3.124-9.842l-1.51,0.717C31.46,10.549,32.574,13.703,32.574,17.113z"/>
<path fill="#BE1E2D" d="M17.11,32.572c-3.516,0-6.759-1.174-9.361-3.166l-0.794,1.463c2.842,2.104,6.357,3.354,10.155,3.354
	c3.49,0,6.737-1.053,9.442-2.85l-0.845-1.412C23.246,31.609,20.294,32.572,17.11,32.572z"/>
<path fill="#BE1E2D" d="M1.647,17.113c0-3.563,1.216-6.846,3.247-9.463l-1.43-0.848C1.289,9.672,0,13.24,0,17.113
	c0,3.994,1.383,7.672,3.687,10.586l1.285-1.031C2.894,24.039,1.647,20.717,1.647,17.113z"/>
<path fill="#BE1E2D" d="M23.426,17.113c0,3.486-2.825,6.313-6.315,6.313c-3.486,0-6.311-2.826-6.311-6.313s2.824-6.313,6.311-6.313
	C20.601,10.801,23.426,13.627,23.426,17.113z"/>
</svg>
