<?xml version="1.0" encoding="utf-8"?>
<!-- Generator: Adobe Illustrator 15.1.0, SVG Export Plug-In  -->
<!DOCTYPE svg PUBLIC "-//W3C//DTD SVG 1.1//EN" "http://www.w3.org/Graphics/SVG/1.1/DTD/svg11.dtd" [
	<!ENTITY ns_flows "http://ns.adobe.com/Flows/1.0/">
]>
<svg version="1.1"
	 xmlns="http://www.w3.org/2000/svg" xmlns:xlink="http://www.w3.org/1999/xlink" xmlns:a="http://ns.adobe.com/AdobeSVGViewerExtensions/3.0/"
	 x="0px" y="0px" width="570px" height="600px" viewBox="-298.342 -477.718 570 600"
	 enable-background="new -298.342 -477.718 570 600" xml:space="preserve">
<defs>
</defs>
<path fill="#BE1E2D" d="M8.969,17.111c0-2.211,0.892-4.217,2.321-5.684l-1.446-0.854c-1.562,1.736-2.522,4.025-2.522,6.537
	c0,2.264,0.781,4.346,2.074,6.008l1.284-1.033C9.613,20.707,8.969,18.986,8.969,17.111z"/>
<path fill="#BE1E2D" d="M25.259,17.111c0,2.273-0.942,4.33-2.448,5.809l1.34,0.984c1.697-1.764,2.752-4.152,2.752-6.793
	c0-2.555-0.99-4.873-2.599-6.619l-1.566,0.748C24.286,12.723,25.259,14.805,25.259,17.111z"/>
<path fill="#BE1E2D" d="M17.114,8.971c1.745,0,3.366,0.559,4.693,1.498l1.104-1.229c-1.629-1.197-3.631-1.918-5.798-1.918
	c-2.334,0-4.48,0.826-6.161,2.193l0.98,1.316C13.342,9.67,15.147,8.971,17.114,8.971z"/>
<path fill="#BE1E2D" d="M17.114,25.256c-2.266,0-4.313-0.93-5.795-2.424l-0.811,1.492c1.745,1.596,4.058,2.58,6.605,2.58
	c2.111,0,4.07-0.686,5.67-1.826l-0.849-1.422C20.583,24.658,18.919,25.256,17.114,25.256z"/>
<path fill="#BE1E2D" d="M28.822,17.111c0,3.061-1.19,5.85-3.119,7.938l1.34,0.986c2.134-2.367,3.426-5.492,3.426-8.924
	c0-3.092-1.054-5.932-2.824-8.199l-1.527,0.723C27.807,11.666,28.822,14.273,28.822,17.111z"/>
<path fill="#BE1E2D" d="M17.114,28.822c-2.876,0-5.505-1.039-7.549-2.766l-0.798,1.479c2.292,1.834,5.188,2.936,8.347,2.936
	c2.777,0,5.367-0.855,7.509-2.318l-0.845-1.422C21.88,28.051,19.589,28.822,17.114,28.822z"/>
<path fill="#BE1E2D" d="M5.402,17.111c0-2.867,1.041-5.494,2.756-7.533l-1.435-0.85c-1.855,2.293-2.974,5.209-2.974,8.383
	c0,3.109,1.071,5.973,2.863,8.246l1.284-1.039C6.341,22.33,5.402,19.832,5.402,17.111z"/>
<path fill="#BE1E2D" d="M17.114,5.398c2.662,0,5.111,0.904,7.083,2.408l1.104-1.238c-2.261-1.758-5.103-2.814-8.188-2.814
	c-3.132,0-6.017,1.086-8.295,2.895l0.985,1.328C11.814,6.367,14.35,5.398,17.114,5.398z"/>
<path fill="#BE1E2D" d="M17.114,1.652c3.622,0,6.955,1.25,9.596,3.35l1.101-1.229C24.88,1.418,21.159,0,17.114,0
	C13.142,0,9.489,1.365,6.583,3.643l0.982,1.318C10.197,2.891,13.509,1.652,17.114,1.652z"/>
<path fill="#BE1E2D" d="M32.577,17.111c0,3.896-1.451,7.453-3.831,10.172l1.33,0.979c2.582-3,4.144-6.893,4.144-11.15
	c0-3.656-1.156-7.053-3.119-9.836L29.586,7.99C31.463,10.551,32.577,13.699,32.577,17.111z"/>
<path fill="#BE1E2D" d="M17.114,32.574c-3.521,0-6.763-1.18-9.362-3.166l-0.797,1.463c2.846,2.104,6.357,3.35,10.159,3.35
	c3.485,0,6.733-1.049,9.442-2.85l-0.85-1.414C23.25,31.613,20.293,32.574,17.114,32.574z"/>
<path fill="#BE1E2D" d="M1.651,17.111c0-3.561,1.212-6.842,3.242-9.465l-1.429-0.84C1.292,9.674,0,13.246,0,17.111
	c0,3.998,1.382,7.674,3.687,10.592l1.284-1.035C2.893,24.039,1.651,20.719,1.651,17.111z"/>
<path fill="#BE1E2D" d="M23.425,17.115c0,3.488-2.825,6.309-6.311,6.309c-3.486,0-6.315-2.82-6.315-6.309
	c0-3.49,2.829-6.316,6.315-6.316C20.6,10.799,23.425,13.625,23.425,17.115z"/>
</svg>
