<?xml version="1.0" encoding="utf-8"?>
<!-- Generator: Adobe Illustrator 15.1.0, SVG Export Plug-In  -->
<!DOCTYPE svg PUBLIC "-//W3C//DTD SVG 1.1//EN" "http://www.w3.org/Graphics/SVG/1.1/DTD/svg11.dtd" [
	<!ENTITY ns_flows "http://ns.adobe.com/Flows/1.0/">
]>
<svg version="1.1"
	 xmlns="http://www.w3.org/2000/svg" xmlns:xlink="http://www.w3.org/1999/xlink" xmlns:a="http://ns.adobe.com/AdobeSVGViewerExtensions/3.0/"
	 x="0px" y="0px" width="570px" height="600px" viewBox="-167.624 -552.054 570 600"
	 enable-background="new -167.624 -552.054 570 600" xml:space="preserve">
<defs>
</defs>
<path fill="#F6921E" d="M5.944,11.344c0-1.463,0.589-2.791,1.54-3.766l-0.96-0.566C5.487,8.16,4.853,9.68,4.853,11.344
	c0,1.506,0.516,2.879,1.373,3.984l0.854-0.684C6.37,13.73,5.944,12.588,5.944,11.344z"/>
<path fill="#F6921E" d="M16.743,11.344c0,1.51-0.622,2.873-1.621,3.852l0.888,0.654c1.126-1.17,1.826-2.756,1.826-4.506
	c0-1.693-0.657-3.23-1.72-4.383l-1.041,0.488C16.104,8.436,16.743,9.816,16.743,11.344z"/>
<path fill="#F6921E" d="M11.346,5.945c1.156,0,2.231,0.369,3.115,0.998l0.729-0.82c-1.08-0.791-2.406-1.271-3.845-1.271
	c-1.549,0-2.97,0.549-4.083,1.457l0.648,0.869C8.846,6.412,10.04,5.945,11.346,5.945z"/>
<path fill="#F6921E" d="M11.346,16.746c-1.502,0-2.863-0.615-3.844-1.609l-0.534,0.99c1.152,1.059,2.688,1.707,4.378,1.707
	c1.4,0,2.696-0.445,3.76-1.207l-0.563-0.939C13.646,16.346,12.541,16.746,11.346,16.746z"/>
<path fill="#F6921E" d="M19.111,11.344c0,2.033-0.789,3.877-2.069,5.262l0.888,0.654c1.412-1.568,2.274-3.643,2.274-5.916
	c0-2.049-0.704-3.936-1.878-5.438l-1.011,0.48C18.433,7.732,19.111,9.461,19.111,11.344z"/>
<path fill="#F6921E" d="M11.346,19.111c-1.907,0-3.651-0.691-5.005-1.836l-0.529,0.979c1.52,1.221,3.439,1.949,5.534,1.949
	c1.844,0,3.563-0.57,4.979-1.537l-0.563-0.939C14.508,18.594,12.984,19.111,11.346,19.111z"/>
<path fill="#F6921E" d="M3.576,11.344c0-1.902,0.691-3.643,1.835-4.994L4.455,5.785C3.227,7.309,2.484,9.24,2.484,11.344
	c0,2.061,0.712,3.961,1.898,5.467l0.854-0.684C4.203,14.803,3.576,13.15,3.576,11.344z"/>
<path fill="#F6921E" d="M11.346,3.582c1.763,0,3.388,0.594,4.698,1.592l0.729-0.816c-1.502-1.17-3.384-1.869-5.428-1.869
	c-2.077,0-3.985,0.719-5.5,1.92l0.653,0.881C7.83,4.223,9.511,3.582,11.346,3.582z"/>
<path fill="#F6921E" d="M11.346,1.092c2.402,0,4.608,0.834,6.362,2.225L18.438,2.5C16.491,0.941,14.025,0,11.346,0
	C8.709,0,6.29,0.906,4.361,2.414L5.01,3.289C6.755,1.916,8.957,1.092,11.346,1.092z"/>
<path fill="#F6921E" d="M21.595,11.344c0,2.578-0.96,4.939-2.539,6.746l0.884,0.65c1.715-1.988,2.748-4.572,2.748-7.396
	c0-2.426-0.765-4.672-2.069-6.521l-1.003,0.475C20.861,6.992,21.595,9.086,21.595,11.344z"/>
<path fill="#F6921E" d="M11.346,21.604c-2.334,0-4.484-0.789-6.208-2.107l-0.525,0.973c1.883,1.395,4.212,2.223,6.733,2.223
	c2.309,0,4.464-0.701,6.26-1.891l-0.563-0.938C15.412,20.959,13.449,21.604,11.346,21.604z"/>
<path fill="#F6921E" d="M1.093,11.344c0-2.363,0.803-4.537,2.154-6.271L2.296,4.51C0.858,6.416,0,8.781,0,11.344
	c0,2.65,0.918,5.09,2.441,7.02l0.849-0.68C1.916,15.934,1.093,13.736,1.093,11.344z"/>
<path fill="#F6921E" d="M15.527,11.344c0,2.313-1.873,4.188-4.182,4.188c-2.313,0-4.189-1.875-4.189-4.188s1.877-4.188,4.189-4.188
	C13.654,7.156,15.527,9.031,15.527,11.344z"/>
</svg>
