<?xml version="1.0" encoding="utf-8"?>
<!-- Generator: Adobe Illustrator 15.1.0, SVG Export Plug-In  -->
<!DOCTYPE svg PUBLIC "-//W3C//DTD SVG 1.1//EN" "http://www.w3.org/Graphics/SVG/1.1/DTD/svg11.dtd" [
	<!ENTITY ns_flows "http://ns.adobe.com/Flows/1.0/">
]>
<svg version="1.1"
	 xmlns="http://www.w3.org/2000/svg" xmlns:xlink="http://www.w3.org/1999/xlink" xmlns:a="http://ns.adobe.com/AdobeSVGViewerExtensions/3.0/"
	 x="0px" y="0px" width="570px" height="600px" viewBox="-161.855 -477.718 570 600"
	 enable-background="new -161.855 -477.718 570 600" xml:space="preserve">
<defs>
</defs>
<path fill="#F6921E" d="M8.97,17.111c0-2.211,0.887-4.217,2.32-5.684l-1.442-0.854c-1.565,1.736-2.525,4.025-2.525,6.537
	c0,2.264,0.78,4.346,2.074,6.008l1.283-1.033C9.613,20.707,8.97,18.986,8.97,17.111z"/>
<path fill="#F6921E" d="M25.256,17.111c0,2.273-0.939,4.33-2.445,5.809l1.34,0.984c1.698-1.764,2.752-4.152,2.752-6.793
	c0-2.555-0.989-4.873-2.594-6.619l-1.566,0.748C24.287,12.723,25.256,14.805,25.256,17.111z"/>
<path fill="#F6921E" d="M17.114,8.971c1.75,0,3.367,0.559,4.693,1.498l1.102-1.229c-1.622-1.197-3.627-1.918-5.795-1.918
	c-2.334,0-4.476,0.826-6.161,2.193l0.981,1.316C13.343,9.67,15.147,8.971,17.114,8.971z"/>
<path fill="#F6921E" d="M17.114,25.256c-2.266,0-4.317-0.93-5.794-2.424l-0.807,1.492c1.741,1.596,4.054,2.58,6.601,2.58
	c2.112,0,4.066-0.686,5.671-1.826l-0.85-1.422C20.583,24.658,18.92,25.256,17.114,25.256z"/>
<path fill="#F6921E" d="M28.822,17.111c0,3.061-1.19,5.85-3.118,7.938l1.339,0.986c2.13-2.367,3.427-5.492,3.427-8.924
	c0-3.092-1.059-5.932-2.82-8.199l-1.532,0.723C27.808,11.666,28.822,14.273,28.822,17.111z"/>
<path fill="#F6921E" d="M17.114,28.822c-2.871,0-5.504-1.039-7.543-2.766l-0.803,1.479c2.287,1.834,5.188,2.936,8.346,2.936
	c2.782,0,5.372-0.855,7.51-2.318l-0.849-1.422C21.885,28.051,19.589,28.822,17.114,28.822z"/>
<path fill="#F6921E" d="M5.402,17.111c0-2.867,1.037-5.494,2.756-7.533l-1.434-0.85c-1.855,2.293-2.97,5.209-2.97,8.383
	c0,3.109,1.067,5.973,2.854,8.246l1.289-1.039C6.341,22.33,5.402,19.832,5.402,17.111z"/>
<path fill="#F6921E" d="M17.114,5.398c2.658,0,5.112,0.904,7.079,2.408l1.109-1.238c-2.266-1.758-5.104-2.814-8.188-2.814
	c-3.132,0-6.012,1.086-8.295,2.895l0.986,1.328C11.811,6.367,14.35,5.398,17.114,5.398z"/>
<path fill="#F6921E" d="M17.114,1.652c3.622,0,6.959,1.25,9.597,3.35l1.101-1.229C24.88,1.418,21.16,0,17.114,0
	C13.142,0,9.49,1.365,6.584,3.643l0.981,1.318C10.194,2.891,13.509,1.652,17.114,1.652z"/>
<path fill="#F6921E" d="M32.577,17.111c0,3.896-1.45,7.453-3.831,10.172l1.327,0.979c2.585-3,4.151-6.893,4.151-11.15
	c0-3.656-1.161-7.053-3.128-9.836l-1.51,0.715C31.464,10.551,32.577,13.699,32.577,17.111z"/>
<path fill="#F6921E" d="M17.114,32.574c-3.516,0-6.763-1.18-9.365-3.166L6.96,30.871c2.842,2.104,6.353,3.35,10.154,3.35
	c3.486,0,6.729-1.049,9.442-2.85l-0.849-1.414C23.246,31.613,20.293,32.574,17.114,32.574z"/>
<path fill="#F6921E" d="M1.647,17.111c0-3.561,1.216-6.842,3.247-9.465l-1.43-0.84C1.293,9.674,0,13.246,0,17.111
	c0,3.998,1.383,7.674,3.687,10.592l1.284-1.035C2.894,24.039,1.647,20.719,1.647,17.111z"/>
<path fill="#F6921E" d="M23.425,17.115c0,3.488-2.824,6.309-6.311,6.309c-3.485,0-6.314-2.82-6.314-6.309
	c0-3.49,2.829-6.316,6.314-6.316C20.601,10.799,23.425,13.625,23.425,17.115z"/>
</svg>
