<?xml version="1.0" encoding="utf-8"?>
<!-- Generator: Adobe Illustrator 15.1.0, SVG Export Plug-In  -->
<!DOCTYPE svg PUBLIC "-//W3C//DTD SVG 1.1//EN" "http://www.w3.org/Graphics/SVG/1.1/DTD/svg11.dtd" [
	<!ENTITY ns_flows "http://ns.adobe.com/Flows/1.0/">
]>
<svg version="1.1"
	 xmlns="http://www.w3.org/2000/svg" xmlns:xlink="http://www.w3.org/1999/xlink" xmlns:a="http://ns.adobe.com/AdobeSVGViewerExtensions/3.0/"
	 x="0px" y="0px" width="570px" height="600px" viewBox="-361.584 -515.353 570 600"
	 enable-background="new -361.584 -515.353 570 600" xml:space="preserve">
<defs>
</defs>
<path fill="#F6921E" d="M8.969,17.107c0-2.207,0.888-4.213,2.321-5.676l-1.446-0.857c-1.562,1.734-2.525,4.021-2.525,6.533
	c0,2.264,0.78,4.348,2.073,6.01l1.284-1.029C9.609,20.705,8.969,18.982,8.969,17.107z"/>
<path fill="#F6921E" d="M25.256,17.107c0,2.277-0.938,4.334-2.449,5.813l1.344,0.982c1.698-1.762,2.752-4.156,2.752-6.795
	c0-2.549-0.994-4.867-2.594-6.611l-1.575,0.738C24.282,12.721,25.256,14.805,25.256,17.107z"/>
<path fill="#F6921E" d="M17.105,8.969c1.754,0,3.371,0.561,4.702,1.5l1.102-1.229c-1.626-1.201-3.627-1.922-5.804-1.922
	c-2.325,0-4.471,0.826-6.156,2.193l0.981,1.322C13.343,9.666,15.147,8.969,17.105,8.969z"/>
<path fill="#F6921E" d="M17.105,25.254c-2.257,0-4.31-0.93-5.785-2.428l-0.811,1.492c1.74,1.602,4.058,2.584,6.596,2.584
	c2.121,0,4.075-0.684,5.68-1.826l-0.854-1.418C20.579,24.656,18.915,25.254,17.105,25.254z"/>
<path fill="#F6921E" d="M28.822,17.107c0,3.066-1.19,5.85-3.123,7.938l1.344,0.988c2.13-2.369,3.427-5.496,3.427-8.926
	c0-3.088-1.058-5.932-2.825-8.197l-1.527,0.727C27.803,11.666,28.822,14.27,28.822,17.107z"/>
<path fill="#F6921E" d="M17.105,28.82c-2.867,0-5.499-1.043-7.539-2.766l-0.802,1.479c2.286,1.836,5.188,2.938,8.341,2.938
	c2.791,0,5.377-0.857,7.519-2.32l-0.85-1.42C21.881,28.045,19.585,28.82,17.105,28.82z"/>
<path fill="#F6921E" d="M5.397,17.107c0-2.865,1.041-5.49,2.761-7.529l-1.438-0.85c-1.852,2.295-2.97,5.213-2.97,8.379
	c0,3.111,1.07,5.975,2.858,8.248l1.288-1.041C6.336,22.328,5.397,19.83,5.397,17.107z"/>
<path fill="#F6921E" d="M17.105,5.398c2.667,0,5.12,0.906,7.088,2.41l1.109-1.24c-2.266-1.766-5.107-2.816-8.197-2.816
	c-3.127,0-6.007,1.086-8.286,2.895l0.986,1.328C11.807,6.365,14.345,5.398,17.105,5.398z"/>
<path fill="#F6921E" d="M17.105,1.646c3.627,0,6.964,1.256,9.605,3.355l1.097-1.23C24.876,1.416,21.155,0,17.105,0
	C13.143,0,9.485,1.363,6.58,3.637l0.98,1.322C10.193,2.887,13.509,1.646,17.105,1.646z"/>
<path fill="#F6921E" d="M32.573,17.107c0,3.896-1.446,7.455-3.832,10.178l1.332,0.977c2.581-2.998,4.146-6.896,4.146-11.154
	c0-3.658-1.156-7.051-3.127-9.834l-1.507,0.713C31.464,10.547,32.573,13.705,32.573,17.107z"/>
<path fill="#F6921E" d="M17.105,32.572c-3.516,0-6.759-1.18-9.356-3.168l-0.794,1.469c2.842,2.102,6.357,3.346,10.15,3.346
	c3.49,0,6.737-1.051,9.443-2.848l-0.846-1.412C23.246,31.609,20.289,32.572,17.105,32.572z"/>
<path fill="#F6921E" d="M1.647,17.107c0-3.561,1.212-6.844,3.247-9.463l-1.43-0.84C1.289,9.672,0,13.244,0,17.107
	c0,3.998,1.379,7.676,3.683,10.59l1.284-1.027C2.89,24.037,1.647,20.717,1.647,17.107z"/>
<path fill="#F6921E" d="M23.425,17.107c0,3.492-2.829,6.318-6.319,6.318c-3.485,0-6.31-2.826-6.31-6.318
	c0-3.486,2.824-6.311,6.31-6.311C20.596,10.797,23.425,13.621,23.425,17.107z"/>
</svg>
