<?xml version="1.0" encoding="utf-8"?>
<!-- Generator: Adobe Illustrator 15.1.0, SVG Export Plug-In  -->
<!DOCTYPE svg PUBLIC "-//W3C//DTD SVG 1.1//EN" "http://www.w3.org/Graphics/SVG/1.1/DTD/svg11.dtd" [
	<!ENTITY ns_flows "http://ns.adobe.com/Flows/1.0/">
]>
<svg version="1.1"
	 xmlns="http://www.w3.org/2000/svg" xmlns:xlink="http://www.w3.org/1999/xlink" xmlns:a="http://ns.adobe.com/AdobeSVGViewerExtensions/3.0/"
	 x="0px" y="0px" width="570px" height="600px" viewBox="-419.746 -515.353 570 600"
	 enable-background="new -419.746 -515.353 570 600" xml:space="preserve">
<defs>
</defs>
<path fill="#BE1E2D" d="M8.969,17.107c0-2.207,0.893-4.213,2.326-5.676l-1.451-0.857c-1.562,1.734-2.521,4.021-2.521,6.533
	c0,2.264,0.776,4.348,2.073,6.01l1.284-1.029C9.613,20.705,8.969,18.982,8.969,17.107z"/>
<path fill="#BE1E2D" d="M25.256,17.107c0,2.277-0.939,4.334-2.445,5.813l1.34,0.982c1.694-1.762,2.752-4.156,2.752-6.795
	c0-2.549-0.99-4.867-2.599-6.611l-1.566,0.738C24.286,12.721,25.256,14.805,25.256,17.107z"/>
<path fill="#BE1E2D" d="M17.109,8.969c1.75,0,3.371,0.561,4.698,1.5l1.105-1.229c-1.63-1.201-3.631-1.922-5.804-1.922
	c-2.329,0-4.475,0.826-6.156,2.193l0.981,1.322C13.347,9.666,15.151,8.969,17.109,8.969z"/>
<path fill="#BE1E2D" d="M17.109,25.254c-2.261,0-4.309-0.93-5.785-2.428l-0.814,1.492c1.745,1.602,4.057,2.584,6.6,2.584
	c2.117,0,4.075-0.684,5.676-1.826l-0.85-1.418C20.583,24.656,18.919,25.254,17.109,25.254z"/>
<path fill="#BE1E2D" d="M28.822,17.107c0,3.066-1.19,5.85-3.123,7.938l1.344,0.988c2.129-2.369,3.431-5.496,3.431-8.926
	c0-3.088-1.063-5.932-2.829-8.197l-1.527,0.727C27.807,11.666,28.822,14.27,28.822,17.107z"/>
<path fill="#BE1E2D" d="M17.109,28.82c-2.871,0-5.503-1.043-7.543-2.766l-0.798,1.479c2.287,1.836,5.188,2.938,8.341,2.938
	c2.787,0,5.373-0.857,7.515-2.32l-0.85-1.42C21.88,28.045,19.585,28.82,17.109,28.82z"/>
<path fill="#BE1E2D" d="M5.397,17.107c0-2.865,1.046-5.49,2.761-7.529l-1.434-0.85c-1.86,2.295-2.97,5.213-2.97,8.379
	c0,3.111,1.07,5.975,2.854,8.248l1.288-1.041C6.336,22.328,5.397,19.83,5.397,17.107z"/>
<path fill="#BE1E2D" d="M17.109,5.398c2.667,0,5.112,0.906,7.083,2.41l1.114-1.24c-2.266-1.766-5.107-2.816-8.197-2.816
	c-3.131,0-6.011,1.086-8.29,2.895l0.986,1.328C11.811,6.365,14.35,5.398,17.109,5.398z"/>
<path fill="#BE1E2D" d="M17.109,1.646c3.628,0,6.964,1.256,9.601,3.355l1.102-1.23C24.876,1.416,21.155,0,17.109,0
	C13.142,0,9.485,1.363,6.584,3.637l0.981,1.322C10.198,2.887,13.509,1.646,17.109,1.646z"/>
<path fill="#BE1E2D" d="M32.572,17.107c0,3.896-1.446,7.455-3.826,10.178l1.331,0.977c2.581-2.998,4.146-6.896,4.146-11.154
	c0-3.658-1.164-7.051-3.127-9.834l-1.511,0.713C31.464,10.547,32.572,13.705,32.572,17.107z"/>
<path fill="#BE1E2D" d="M17.109,32.572c-3.511,0-6.758-1.18-9.36-3.168l-0.794,1.469c2.846,2.102,6.357,3.346,10.154,3.346
	c3.49,0,6.738-1.051,9.443-2.848l-0.846-1.412C23.245,31.609,20.288,32.572,17.109,32.572z"/>
<path fill="#BE1E2D" d="M1.646,17.107c0-3.561,1.217-6.844,3.252-9.463l-1.434-0.84C1.293,9.672,0,13.244,0,17.107
	c0,3.998,1.383,7.676,3.683,10.59l1.288-1.027C2.893,24.037,1.646,20.717,1.646,17.107z"/>
<path fill="#BE1E2D" d="M23.425,17.107c0,3.492-2.829,6.318-6.315,6.318c-3.485,0-6.31-2.826-6.31-6.318
	c0-3.486,2.824-6.311,6.31-6.311C20.596,10.797,23.425,13.621,23.425,17.107z"/>
</svg>
