<?xml version="1.0" encoding="utf-8"?>
<!-- Generator: Adobe Illustrator 15.1.0, SVG Export Plug-In  -->
<!DOCTYPE svg PUBLIC "-//W3C//DTD SVG 1.1//EN" "http://www.w3.org/Graphics/SVG/1.1/DTD/svg11.dtd" [
	<!ENTITY ns_flows "http://ns.adobe.com/Flows/1.0/">
]>
<svg version="1.1"
	 xmlns="http://www.w3.org/2000/svg" xmlns:xlink="http://www.w3.org/1999/xlink" xmlns:a="http://ns.adobe.com/AdobeSVGViewerExtensions/3.0/"
	 x="0px" y="0px" width="570px" height="600px" viewBox="-298.342 -440.14 570 600"
	 enable-background="new -298.342 -440.14 570 600" xml:space="preserve">
<defs>
</defs>
<path fill="#F6921E" d="M8.969,17.113c0-2.211,0.892-4.217,2.321-5.686l-1.446-0.852c-1.562,1.73-2.522,4.021-2.522,6.537
	c0,2.262,0.781,4.344,2.074,6.004l1.284-1.033C9.613,20.711,8.969,18.986,8.969,17.113z"/>
<path fill="#F6921E" d="M25.259,17.113c0,2.27-0.942,4.326-2.448,5.809l1.34,0.98c1.697-1.76,2.752-4.152,2.752-6.789
	c0-2.553-0.99-4.875-2.599-6.619l-1.566,0.746C24.286,12.725,25.259,14.805,25.259,17.113z"/>
<path fill="#F6921E" d="M17.114,8.969c1.745,0,3.366,0.559,4.693,1.504l1.104-1.232c-1.629-1.197-3.631-1.916-5.798-1.916
	c-2.334,0-4.48,0.82-6.161,2.189l0.98,1.314C13.342,9.668,15.147,8.969,17.114,8.969z"/>
<path fill="#F6921E" d="M17.114,25.254c-2.266,0-4.313-0.928-5.795-2.426l-0.811,1.494c1.745,1.596,4.058,2.576,6.605,2.576
	c2.111,0,4.07-0.678,5.67-1.822l-0.849-1.418C20.583,24.654,18.919,25.254,17.114,25.254z"/>
<path fill="#F6921E" d="M28.822,17.113c0,3.059-1.19,5.844-3.119,7.932l1.34,0.986c2.134-2.367,3.426-5.494,3.426-8.918
	c0-3.09-1.054-5.936-2.824-8.203l-1.527,0.727C27.807,11.668,28.822,14.271,28.822,17.113z"/>
<path fill="#F6921E" d="M17.114,28.824c-2.876,0-5.505-1.047-7.549-2.766l-0.798,1.475c2.292,1.834,5.188,2.938,8.347,2.938
	c2.777,0,5.367-0.857,7.509-2.32l-0.845-1.418C21.88,28.049,19.589,28.824,17.114,28.824z"/>
<path fill="#F6921E" d="M5.402,17.113c0-2.873,1.041-5.498,2.756-7.537L6.724,8.729c-1.855,2.293-2.974,5.209-2.974,8.385
	c0,3.105,1.071,5.967,2.863,8.24l1.284-1.035C6.341,22.328,5.402,19.828,5.402,17.113z"/>
<path fill="#F6921E" d="M17.114,5.4c2.662,0,5.111,0.904,7.083,2.404l1.104-1.236c-2.261-1.762-5.103-2.816-8.188-2.816
	c-3.132,0-6.017,1.086-8.295,2.895l0.985,1.328C11.814,6.367,14.35,5.4,17.114,5.4z"/>
<path fill="#F6921E" d="M17.114,1.648c3.622,0,6.955,1.254,9.596,3.354l1.101-1.23C24.88,1.418,21.159,0,17.114,0
	C13.142,0,9.489,1.361,6.583,3.641l0.982,1.322C10.197,2.893,13.509,1.648,17.114,1.648z"/>
<path fill="#F6921E" d="M32.577,17.113c0,3.889-1.451,7.449-3.831,10.168l1.33,0.98c2.582-2.998,4.144-6.895,4.144-11.148
	c0-3.66-1.156-7.055-3.119-9.842l-1.515,0.717C31.463,10.549,32.577,13.703,32.577,17.113z"/>
<path fill="#F6921E" d="M17.114,32.572c-3.521,0-6.763-1.174-9.362-3.166l-0.797,1.463c2.846,2.104,6.357,3.354,10.159,3.354
	c3.485,0,6.733-1.053,9.442-2.85l-0.85-1.412C23.25,31.609,20.293,32.572,17.114,32.572z"/>
<path fill="#F6921E" d="M1.651,17.113c0-3.563,1.212-6.846,3.242-9.463L3.465,6.803C1.292,9.672,0,13.24,0,17.113
	c0,3.994,1.382,7.672,3.687,10.586l1.284-1.031C2.893,24.039,1.651,20.717,1.651,17.113z"/>
<circle fill="#F6921E" cx="17.112" cy="17.113" r="6.313"/>
</svg>
