<?xml version="1.0" encoding="utf-8"?>
<!-- Generator: Adobe Illustrator 15.1.0, SVG Export Plug-In  -->
<!DOCTYPE svg PUBLIC "-//W3C//DTD SVG 1.1//EN" "http://www.w3.org/Graphics/SVG/1.1/DTD/svg11.dtd" [
	<!ENTITY ns_flows "http://ns.adobe.com/Flows/1.0/">
]>
<svg version="1.1"
	 xmlns="http://www.w3.org/2000/svg" xmlns:xlink="http://www.w3.org/1999/xlink" xmlns:a="http://ns.adobe.com/AdobeSVGViewerExtensions/3.0/"
	 x="0px" y="0px" width="570px" height="600px" viewBox="-119.515 -71.503 570 600"
	 enable-background="new -119.515 -71.503 570 600" xml:space="preserve">
<defs>
</defs>
<rect x="0.923" y="0.922" fill="#F6921E" width="12.113" height="15.461"/>
<path fill="#A6A8AB" d="M13.957,17.305H0V0h13.957V17.305z M1.844,15.461h10.271V1.846H1.844V15.461z"/>
</svg>
